-- -*- haskell -*-
-- This Alex file was machine-generated by the BNF converter
{
{-# OPTIONS -fno-warn-incomplete-patterns #-}
module Lexgramatyka where



import Data.Word (Word8)
}


$l = [a-zA-Z\192 - \255] # [\215 \247]    -- isolatin1 letter FIXME
$c = [A-Z\192-\221] # [\215]    -- capital isolatin1 letter FIXME
$s = [a-z\222-\255] # [\247]    -- small isolatin1 letter FIXME
$d = [0-9]                -- digit
$i = [$l $d _ ']          -- identifier character
$u = [\0-\255]          -- universal: any character

@rsyms =    -- symbols and non-identifier-like reserved words
   \{ | \} | \= | \; | "if" \  \( | \) | "while" \  \( | \( | \| \| | \& \& | \= \= | \! \= | \< | \> | \+ | \- | \* | \/ | \+ \= | \- \= | \* \= | \/ \= | \+ \+ | \- \- | \,

:-
"//" [.]* ; -- Toss single line comments

$white+ ;
@rsyms { tok (\p s -> PT p (eitherResIdent (TV . share) s)) }

$l $i*   { tok (\p s -> PT p (eitherResIdent (TV . share) s)) }


$d+      { tok (\p s -> PT p (TI $ share s))    }


{

tok f p s = f p s

share :: String -> String
share = id

data Tok =
   TS !String !Int    -- reserved words and symbols
 | TL !String         -- string literals
 | TI !String         -- integer literals
 | TV !String         -- identifiers
 | TD !String         -- double precision float literals
 | TC !String         -- character literals

 deriving (Eq,Show,Ord)

data Token = 
   PT  Posn Tok
 | Err Posn
  deriving (Eq,Show,Ord)

tokenPos (PT (Pn _ l _) _ :_) = "line " ++ show l
tokenPos (Err (Pn _ l _) :_) = "line " ++ show l
tokenPos _ = "end of file"

posLineCol (Pn _ l c) = (l,c)
mkPosToken t@(PT p _) = (posLineCol p, prToken t)

prToken t = case t of
  PT _ (TS s _) -> s
  PT _ (TL s)   -> s
  PT _ (TI s)   -> s
  PT _ (TV s)   -> s
  PT _ (TD s)   -> s
  PT _ (TC s)   -> s


data BTree = N | B String Tok BTree BTree deriving (Show)

eitherResIdent :: (String -> Tok) -> String -> Tok
eitherResIdent tv s = treeFind resWords
  where
  treeFind N = tv s
  treeFind (B a t left right) | s < a  = treeFind left
                              | s > a  = treeFind right
                              | s == a = t

resWords = b "<" 17 (b "+=" 9 (b "*" 5 (b "(" 3 (b "&&" 2 (b "!=" 1 N N) N) (b ")" 4 N N)) (b "+" 7 (b "*=" 6 N N) (b "++" 8 N N))) (b "-=" 13 (b "-" 11 (b "," 10 N N) (b "--" 12 N N)) (b "/=" 15 (b "/" 14 N N) (b ";" 16 N N)))) (b "int" 26 (b "else" 22 (b ">" 20 (b "==" 19 (b "=" 18 N N) N) (b "bool" 21 N N)) (b "for" 24 (b "false" 23 N N) (b "if (" 25 N N))) (b "while (" 30 (b "print" 28 (b "main" 27 N N) (b "true" 29 N N)) (b "||" 32 (b "{" 31 N N) (b "}" 33 N N))))
   where b s n = let bs = id s
                  in B bs (TS bs n)

unescapeInitTail :: String -> String
unescapeInitTail = id . unesc . tail . id where
  unesc s = case s of
    '\\':c:cs | elem c ['\"', '\\', '\''] -> c : unesc cs
    '\\':'n':cs  -> '\n' : unesc cs
    '\\':'t':cs  -> '\t' : unesc cs
    '"':[]    -> []
    c:cs      -> c : unesc cs
    _         -> []

-------------------------------------------------------------------
-- Alex wrapper code.
-- A modified "posn" wrapper.
-------------------------------------------------------------------

data Posn = Pn !Int !Int !Int
      deriving (Eq, Show,Ord)

alexStartPos :: Posn
alexStartPos = Pn 0 1 1

alexMove :: Posn -> Char -> Posn
alexMove (Pn a l c) '\t' = Pn (a+1)  l     (((c+7) `div` 8)*8+1)
alexMove (Pn a l c) '\n' = Pn (a+1) (l+1)   1
alexMove (Pn a l c) _    = Pn (a+1)  l     (c+1)

type AlexInput = (Posn,     -- current position,
                  Char,     -- previous char
                  String)   -- current input string

tokens :: String -> [Token]
tokens str = go (alexStartPos, '\n', str)
    where
      go :: AlexInput -> [Token]
      go inp@(pos, _, str) =
               case alexScan inp 0 of
                AlexEOF                -> []
                AlexError (pos, _, _)  -> [Err pos]
                AlexSkip  inp' len     -> go inp'
                AlexToken inp' len act -> act pos (take len str) : (go inp')

alexGetChar :: AlexInput -> Maybe (Char,AlexInput)
alexGetChar (p, _, s) =
  case  s of
    []  -> Nothing
    (c:s) ->
             let p' = alexMove p c
              in p' `seq` Just (c, (p', c, s))

alexGetByte :: AlexInput -> Maybe (Word8,AlexInput)
alexGetByte (p, _, s) =
  case  s of
    []  -> Nothing
    (c:s) ->
             let p' = alexMove p c
              in p' `seq` Just ((fromIntegral $ ord c), (p', c, s))

alexInputPrevChar :: AlexInput -> Char
alexInputPrevChar (p, c, s) = c
}
